[
{"nom-radio": "\u03c0 Node", "flux": "http://stream.p-node.org/pnode.mp3"},
{"nom-radio": "100% Radio", "flux": "http://100radio-albi.ice.infomaniak.ch/100radio-albi-128.mp3"},
{"nom-radio": "432Hz Radio", "flux": "http://streaming.radionomy.com/AxelAime432Hz"},
{"nom-radio": "4U Radios - All Funky Classics", "flux": "http://streaming.radionomy.com/4U-Funky-Classics"},
{"nom-radio": "666", "flux": "http://radio666.net:8000/"},
{"nom-radio": "Addict Alternative", "flux": "http://stream1.addictradio.net/addictalternative.mp3"},
{"nom-radio": "Addict Lounge", "flux": "http://stream1.addictradio.net/addictlounge.mp3"},
{"nom-radio": "Addict Rock", "flux": "http://stream1.addictradio.net/addictrock.mp3"},
{"nom-radio": "Addict Star", "flux": "http://stream1.addictradio.net/addictstar.mp3"},
{"nom-radio": "Ado FM", "flux": "http://start-adofm.ice.infomaniak.ch/start-adofm-high.mp3"},
{"nom-radio": "Africa n\u00b01", "flux": "https://african1paris.ice.infomaniak.ch/african1paris-128.mp3"},
{"nom-radio": "Agora C\u00f4te d'Azur", "flux": "http://agoracotedazur.ice.infomaniak.ch/agoracotedazur.mp3"},
{"nom-radio": "Aleo", "flux": "http://vt-net.org:8056/;"},
{"nom-radio": "Aligre FM", "flux": "http://live3.vestaradio.com/aligrefm"},
{"nom-radio": "Alouette", "flux": "http://alouette.ice.infomaniak.ch/alouette-high.mp3"},
{"nom-radio": "Alpes 1 Gap", "flux": "http://alpes1gap.ice.infomaniak.ch/alpes1gap-high.mp3"},
{"nom-radio": "Alpes 1 Grenoble", "flux": "http://alpes1grenoble.ice.infomaniak.ch/alpes1grenoble-high.mp3"},
{"nom-radio": "Alta Canzona Corsa", "flux": "https://altacanzona.streamakaci.com/altacanzona.mp3"},
{"nom-radio": "Alta Frequenza", "flux": "https://altafrequenza.streamakaci.com/altafrequenza.mp3"},
{"nom-radio": "AlterNantes FM", "flux": "http://diffusion.lafrap.fr/alternantes.ogg"},
{"nom-radio": "Arvorig FM", "flux": "http://arvorig-fm.online.radiobreizh.bzh/live.mp3"},
{"nom-radio": "AYP FM", "flux": "https://stric6.streamakaci.com/radioayp.mp3"},
{"nom-radio": "AZUR FM 67 - S\u00e9lestat", "flux": "http://listen.radioking.com/radio/74173/stream/112156"},
{"nom-radio": "AZUR FM 68 - Colmar", "flux": "http://listen.radioking.com/radio/74176/stream/112165"},
{"nom-radio": "Banquise FM", "flux": "http://94.23.21.126:10050/stream/1/"},
{"nom-radio": "Bayou Blue Radio", "flux": "http://bayoublueradio.com:8000/live"},
{"nom-radio": "Beur FM", "flux": "http://broadcast.infomaniak.ch/beurfm-high.mp3"},
{"nom-radio": "BFM", "flux": "http://bfmbusiness.cdn.dvmr.fr/bfmbusiness"},
{"nom-radio": "Bide et Musique", "flux": "http://relay1.bide-et-musique.com:9100/"},
{"nom-radio": "Booster FM", "flux": "http://giss.tv:8000/booster-tlse.mp3"},
{"nom-radio": "C9 Radio", "flux": "http://stream.c9.fr/c9.mp3"},
{"nom-radio": "C Lab", "flux": "http://stream.c-lab.fr:8001/c-lab"},
{"nom-radio": "CanalB", "flux": "http://stream.levillage.org/canalb"},
{"nom-radio": "Canal Sud", "flux": "http://91.224.148.160:8000/canalsud-live"},
{"nom-radio": "Cause Commune", "flux": "https://icecast.libre-a-toi.org:8444/voixdulat_mp3"},
{"nom-radio": "Cannes Radio", "flux": "https://cannesradio.ice.infomaniak.ch/cannesradio-128.mp3"},
{"nom-radio": "Cerise FM", "flux": "https://cerisefm.ice.infomaniak.ch/cerisefm-128.mp3"},
{"nom-radio": "Chante France", "flux": "http://stream1.evasionfm.com/Chante_France"},
{"nom-radio": "Ch\u00e9rie FM", "flux": "http://cdn.nrjaudio.fm/audio1/fr/30201/mp3_128.mp3?origine=playerweb"},
{"nom-radio": "Clin d'oeil FM", "flux": "http://clindoeilfm1061.ice.infomaniak.ch/clindoeilfm1061-128.mp3"},
{"nom-radio": "Cristal FM", "flux": "http://radiocristal.ice.infomaniak.ch/radiocristal-high.mp3"},
{"nom-radio": "Crooner Radio", "flux": "http://stream.crooner.fr/crooner"},
{"nom-radio": "Collines", "flux": "http://collineslaradio.ice.infomaniak.ch/collineslaradio-128.mp3"},
{"nom-radio": "Contact", "flux": "http://radio-contact.ice.infomaniak.ch/radio-contact-high.mp3"},
{"nom-radio": "Couleur3.fr", "flux": "http://stream.srg-ssr.ch/m/couleur3/mp3_128"},
{"nom-radio": "Demoiselle FM", "flux": "http://stream.demoisellefm.com:8000/rochefort-192.mp3"},
{"nom-radio": "DHits", "flux": "http://go.dhits.net/live.mp3"},
{"nom-radio": "Divergence Fm", "flux": "http://ridibundus.divergence-fm.org:8000/divergence.ogg"},
{"nom-radio": "Djamradio ", "flux": "http://ledjamradio.ice.infomaniak.ch/ledjamradio.mp3"},
{"nom-radio": "Dogmazic/Radio Libre", "flux": "http://radio.dogmazic.net:8000/stream.mp3"},
{"nom-radio": "Dreyeckland", "flux": "http://radiodreyeckland.ice.infomaniak.ch/radiodreyeckland-128.mp3"},
{"nom-radio": "EnjoyStation", "flux": "http://player.enjoystation.fr/"},
{"nom-radio": "Espace FM", "flux": "http://listen.radioking.com/radio/16769/stream/49487"},
{"nom-radio": "Euradio", "flux": "http://80.82.229.202:8000/euradio.mp3"},
{"nom-radio": "Euronews Radio", "flux": "http://euronews-01.ice.infomaniak.ch/euronews-01.aac"},
{"nom-radio": "Europe 1", "flux": "http://mp3lg3.scdn.arkena.com/10489/europe1.mp3"},
{"nom-radio": "Evasion FM", "flux": "http://stream1.evasionfm.com/Yvelines"},
{"nom-radio": "FG (FM)", "flux": "http://www.radiofg.com/"},
{"nom-radio": "FG (FM)", "flux": null},
{"nom-radio": "FG Vlaanderen Belgium", "flux": null},
{"nom-radio": "FG Chic", "flux": null},
{"nom-radio": "FG Club", "flux": null},
{"nom-radio": "FG Dance by Hakimakli", "flux": null},
{"nom-radio": "FG Non Stop", "flux": null},
{"nom-radio": "FG Starter", "flux": null},
{"nom-radio": "FG Maxximun 90's", "flux": null},
{"nom-radio": "FG Underground", "flux": null},
{"nom-radio": "FIP", "flux": "http://direct.fipradio.fr/live/fip-midfi.mp3"},
{"nom-radio": "Flor FM", "flux": "http://stream.florfm.com:8000/florfm.mp3"},
{"nom-radio": "Fox Radio", "flux": "http://163.172.90.98:8000/livefox"},
{"nom-radio": "France Bleu", "flux": "http://direct.francebleu.fr/live/fbalsace-midfi.mp3"},
{"nom-radio": "France Culture", "flux": "http://direct.franceculture.fr/live/franceculture-midfi.mp3"},
{"nom-radio": "France Info", "flux": "http://direct.franceinfo.fr/live/franceinfo-midfi.mp3"},
{"nom-radio": "France Inter", "flux": "http://direct.franceinter.fr/live/franceinter-midfi.mp3"},
{"nom-radio": "France Maghreb 2", "flux": "https://francemaghreb2.ice.infomaniak.ch/francemaghreb2-high.mp3"},
{"nom-radio": "France Musique", "flux": "http://direct.francemusique.fr/live/francemusique-midfi.mp3"},
{"nom-radio": "French Kiss FM", "flux": null},
{"nom-radio": "Fr\u00e9quence Jazz", "flux": null},
{"nom-radio": "Fr\u00e9quence K", "flux": "http://frequencek.ice.infomaniak.ch/frequencek-128.mp3"},
{"nom-radio": "Frequence Luz", "flux": "http://stream.radios-arra.fr:8000/frequenceluz"},
{"nom-radio": "Fr\u00e9quence Paris Plurielle", "flux": "http://radio.toile-libre.org:8000/fpp.mp3"},
{"nom-radio": "Frequence Plus", "flux": "http://freqplus.ice.infomaniak.ch/freqplus-high.mp3"},
{"nom-radio": "Frequence3", "flux": "http://hd.stream.frequence3.net/frequence3-128.mp3"},
{"nom-radio": "Fugi FM", "flux": "http://92.175.228.15:8000/stream.mp3"},
{"nom-radio": "Fun Radio France", "flux": "http://streaming.radio.funradio.fr/fun-1-44-128"},
{"nom-radio": "Fuzzy & Groovy Rock Radio", "flux": "http://listen.radionomy.com/fuzzy-and-groovy.m3u"},
{"nom-radio": "Galaxie FM 95.30", "flux": "https://listen.radioking.com/radio/15684/stream/29075"},
{"nom-radio": "GENERATION SOUL DISCO FUNK - La R\u00e9f\u00e9rence Soul, Disco, Funk !", "flux": "http://www.generationdiscofunk.com/pls/hd.m3u"},
{"nom-radio": "Generations FM", "flux": "http://generationfm.ice.infomaniak.ch/generationfm-high.mp3"},
{"nom-radio": "Graffiti Urban-Radio  88.6 FM La Roche sur Yon", "flux": "http://80.82.229.202:8000/graffiti.mp3"},
{"nom-radio": "Grand Lille Info", "flux": "https://str0.creacast.com/grandlilleinfos"},
{"nom-radio": "Grimaldi FM", "flux": "http://91.121.29.128:8058/stream"},
{"nom-radio": "HAG FM", "flux": "http://213.246.51.78:9290/;"},
{"nom-radio": "Happy FM", "flux": "http://happyfm.ice.infomaniak.ch/happyfm-128.mp3"},
{"nom-radio": "Hits1 radio", "flux": "https://www.radioking.com/play/grandsud/223459"},
{"nom-radio": "Hits1 latina", "flux": "http://91.121.86.78:8012/;stream.mp3"},
{"nom-radio": "Hit West", "flux": "http://broadcast.infomaniak.ch/hitwest-high.mp3"},
{"nom-radio": "Horizon Radio", "flux": "https://horizonradio-bethunelens.ice.infomaniak.ch/horizonradio-bethunelens-128"},
{"nom-radio": "Hotmix Radio", "flux": "http://streamingads.hotmixradio.fm/hotmixradio-dance-128.mp3"},
{"nom-radio": "Hotmix Radio 80's", "flux": "http://streamingads.hotmixradio.fm/hotmixradio-80-128.mp3"},
{"nom-radio": "Hotmix Radio 90's", "flux": "http://streamingads.hotmixradio.fm/hotmixradio-90-128.mp3"},
{"nom-radio": "Hotmix Radio Funky", "flux": "http://streaming.hotmixradio.fm/hotmixradio-funky-128.mp3"},
{"nom-radio": "Ici & Maintenant !", "flux": "http://radio.rim952.fr:8001/stream.ogg"},
{"nom-radio": "idFM Radio Enghien", "flux": "http://live.idfm98.fr:8000/idfm.m3u"},
{"nom-radio": "Intensit\u00e9", "flux": "http://intensite.net:9010/"},
{"nom-radio": "Jazz Radio", "flux": "http://jazzradio.ice.infomaniak.ch/jazzradio-high.mp3"},
{"nom-radio": "JetFm (Nantes)", "flux": "http://80.82.229.202:8000/jetfm.mp3"},
{"nom-radio": "K6 FM", "flux": "http://k6fm.ice.infomaniak.ch/k6fm-64.aac"},
{"nom-radio": "Radio Kerne", "flux": "http://kerne.online.stalig.net/live.mp3"},
{"nom-radio": "Kiss FM", "flux": "http://kissfm2.ice.infomaniak.ch/kissfm2-128.mp3"},
{"nom-radio": "kisswestcoast", "flux": "http://kisswestcoast.ice.infomaniak.ch/kisswestcoast-64.aac"},
{"nom-radio": "La Cl\u00e9 des Ondes", "flux": "http://radio.lacdo.org/stream"},
{"nom-radio": "Latina", "flux": "http://broadcast.infomaniak.net/start-latina-high.mp3"},
{"nom-radio": "L'Eko des Garrigues", "flux": "http://91.121.159.124:8000/eko-des-garrigues-256k.ogg"},
{"nom-radio": "Let's Go Zik", "flux": "http://stream.letsgozik.com:8000/letsgozik"},
{"nom-radio": "Libre \u00e0 toi", "flux": "http://audio.libre-a-toi.org:8000/voixdulat_ogg"},
{"nom-radio": "LibreAntenne.org", "flux": "http://stream.libreantenne.org/listen.opus"},
{"nom-radio": "Lor'FM", "flux": "http://lorfm.ice.infomaniak.ch/lorfm-128.mp3"},
{"nom-radio": "Magnum La Radio", "flux": "http://str0.creacast.com/magnum"},
{"nom-radio": "Maxi France", "flux": "http://stream.maxifrance.fr:8358/stream"},
{"nom-radio": "MBS Classic Gold", "flux": "http://stream1.evasionfm.com/mbs"},
{"nom-radio": "Mediterraneo Smooth Jazz", "flux": "http://streaming.radionomy.com/Mediterraneo-SMOOTHJAZZ]%20%20*%20[[https://www.melody.tv/radio/"},
{"nom-radio": "MFM", "flux": "http://mfm.ice.infomaniak.ch/mfm-128.mp3"},
{"nom-radio": "Radio MDM", "flux": "http://www.radio-mdm.fr:8000/listen.pls"},
{"nom-radio": "Mixx Radio", "flux": "http://mixxfmfr.ice.infomaniak.ch/mixxfmfr-192.mp3"},
{"nom-radio": "Mona FM", "flux": "http://monafm.ice.infomaniak.ch/monafm-high.mp3"},
{"nom-radio": "Monte Carlo Doualiya (Anciennement RMC Moyen Orient)", "flux": "http://live02.mc-doualiya.com/mc-doualiya.mp3"},
{"nom-radio": "Morow - Rock Progressif", "flux": "http://stream.fr.morow.com:8080/morow_med.mp3"},
{"nom-radio": "Mouv'", "flux": "http://direct.mouv.fr/live/mouv-midfi.mp3"},
{"nom-radio": "Mouv' Xtra", "flux": "http://direct.mouv.fr/live/mouvxtra-midfi.mp3"},
{"nom-radio": "Musical Spa Radio", "flux": "http://streaming.radionomy.com/MusicalSpaRadio"},
{"nom-radio": "NA Radio", "flux": "https://naradio.ice.infomaniak.ch/naradio-192.mp3"},
{"nom-radio": "NEO", "flux": "http://stream.radioneo.org:8000/;"},
{"nom-radio": "Nice Radio", "flux": "http://niceradio.stream.ideocast.fr:8000/niceradio.mp3"},
{"nom-radio": "Nostalgie", "flux": "http://cdn.nrjaudio.fm/audio1/fr/30601/mp3_128.mp3?origine=playerweb"},
{"nom-radio": "NRJ", "flux": "http://cdn.nrjaudio.fm/audio1/fr/30001/mp3_128.mp3?origine=playernrj"},
{"nom-radio": "O2 Radio (Bordeaux)", "flux": "http://91.121.176.26:7900/;"},
{"nom-radio": "Oc\u00e9ane Fm", "flux": "http://oceanefm.ice.infomaniak.ch/oceanefm-128.mp3"},
{"nom-radio": "Onde courte", "flux": "http://stream.ondecourte.fr/radio.ogg"},
{"nom-radio": "O\u00dcI FM", "flux": "http://stream.ouifm.fr/ouifm-high.mp3"},
{"nom-radio": "O\u00dcI FM Alternatif", "flux": "http://alternatif.stream.ouifm.fr/ouifm2.mp3"},
{"nom-radio": "O\u00dcI FM Classic Rock", "flux": "http://classicrock.stream.ouifm.fr/ouifm3.mp3"},
{"nom-radio": "O\u00dcI FM Blues'n'Rock", "flux": "http://bluesnrock.stream.ouifm.fr/ouifmbluesnrock-128.mp3"},
{"nom-radio": "O\u00dcI FM Rock ind\u00e9", "flux": "http://rockinde.stream.ouifm.fr/ouifm5.mp3"},
{"nom-radio": "O\u00dcI FM Ganja", "flux": "http://ganja.stream.ouifm.fr/ouifmganja-128.mp3"},
{"nom-radio": "Outre-Mer 1\u00e8re", "flux": "http://guadeloupe.la1ere.fr/"},
{"nom-radio": "Guadeloupe 1\u00e8re", "flux": null},
{"nom-radio": "Guyane 1\u00e8re", "flux": null},
{"nom-radio": "Martinique 1\u00e8re", "flux": null},
{"nom-radio": "Mayotte 1\u00e8re", "flux": null},
{"nom-radio": "Nouvelle Cal\u00e9donie 1\u00e8re", "flux": null},
{"nom-radio": "Polyn\u00e9sie 1\u00e8re", "flux": null},
{"nom-radio": "R\u00e9union 1\u00e8re", "flux": null},
{"nom-radio": "Saint-Pierre-et-Miquelon 1\u00e8re", "flux": null},
{"nom-radio": "Wallis et Futuna 1\u00e8re", "flux": null},
{"nom-radio": "Radio 6 Calais", "flux": "https://radio6-calais.ice.infomaniak.ch/radio6-calais-128.mp3"},
{"nom-radio": "Radio 8 Ardennes", "flux": "https://radio8.ice.infomaniak.ch/radio8-128.mp3"},
{"nom-radio": "Radio87", "flux": "http://live2.radio87.fr/"},
{"nom-radio": "Radio Accent 4", "flux": "http://str0.creacast.com/accent4"},
{"nom-radio": "Radio Alfa", "flux": "http://5.39.87.10:9860/paris"},
{"nom-radio": "Radio Activ'", "flux": "http://stream.radio-activ.com/"},
{"nom-radio": "Radio Arc-en-Ciel Strasbourg", "flux": "http://str0.creacast.com/arcencielweb"},
{"nom-radio": "Radio B\u00e9ton", "flux": "http://51.254.220.198:8000/stream.mp3"},
{"nom-radio": "Radio Bienvenue Strasbourg", "flux": "http://www4.radiorbs.com:8000/RBS"},
{"nom-radio": "Radio Boomerang", "flux": "http://dabboomerang2.dyndns.org:8091/;"},
{"nom-radio": "Radio-Bro-Gwened", "flux": "http://rbg.online.radiobreizh.bzh/live.mp3"},
{"nom-radio": "Radio Bouton", "flux": "http://heberg.radioludo.com:8076/stream.mp3"},
{"nom-radio": "Radio Campus Amiens", "flux": "http://www.radiocampus.fr:8000/amiens"},
{"nom-radio": "Radio Campus Angers", "flux": "http://80.82.229.202/rca"},
{"nom-radio": "Radio Campus Bordeaux", "flux": "http://www.radiocampus.fr:8000/campus-bordeaux"},
{"nom-radio": "Radio Campus Clermont", "flux": "http://campus.abeille.com:8000/campus"},
{"nom-radio": "Radio Campus Grenoble", "flux": "http://live.campusgrenoble.org:9000/rcg112"},
{"nom-radio": "Radio Campus Lille", "flux": "http://radiocampuslille.ice.infomaniak.ch/radiocampuslille-96.aac"},
{"nom-radio": "Radio Campus Orl\u00e9ans", "flux": "http://orleans.radiocampus.org:8000/stream_rco"},
{"nom-radio": "Radio Campus Toulouse", "flux": "http://live.radio-campus.org:8000/toulouse"},
{"nom-radio": "Radio Campus Tours", "flux": "http://91.121.120.214:8000/webradiocampustours"},
{"nom-radio": "Radio Canut", "flux": "http://live.francra.org:8000/radiocanut"},
{"nom-radio": "Radio CAPSAO", "flux": "http://str0.creacast.com/capsao_b"},
{"nom-radio": "Radio Caroline", "flux": "https://radiocast-002.m2network.fr:8443/radiocaroline.mp3"},
{"nom-radio": "Radio Chalom Nitsan (RCN)", "flux": "http://rcnradiochalomcotedazur.ice.infomaniak.ch/rcnradiochalomcotedazur-128.mp3"},
{"nom-radio": "Radio Cit\u00e9 Vauban (RCV)", "flux": "http://listen.radioking.com/radio/3086/stream/9476"},
{"nom-radio": "Radio Clapas", "flux": null},
{"nom-radio": "Radio Classique", "flux": null},
{"nom-radio": "Radio Courtoisie", "flux": "http://radiocourtoisie.nex-informatique.com/;"},
{"nom-radio": "Radio Cristal", "flux": "http://stream.inovacast.fr:8888/stream"},
{"nom-radio": "Radio Dio", "flux": "http://live.francra.org:8000/RadioDio"},
{"nom-radio": "Radio Dreyeckland Libre 68 (RDL68)", "flux": "http://sv3.vestaradio.com:4060/;stream.mp3"},
{"nom-radio": "Radio ECN", "flux": "http://str30.creacast.com/ecn1"},
{"nom-radio": "Radio EFM", "flux": "http://efm.elliptic.fr:8030/"},
{"nom-radio": "Radio En Construction (R.E.C.)", "flux": "http://str0.creacast.com/rec"},
{"nom-radio": "Radio \u00c9motion", "flux": "http://radioemotion.ice.infomaniak.ch/radioemotion-128.mp3"},
{"nom-radio": "Radio Escapades", "flux": "http://stream.radios-arra.fr:8000/radioescapades"},
{"nom-radio": "Radio Espace", "flux": "http://radioespace.ice.infomaniak.ch/radioespace-high.mp3"},
{"nom-radio": "Radio Esp\u00e9rance", "flux": "https://esperance.streamakaci.com/esperance.mp3"},
{"nom-radio": "Radio Ethic", "flux": "http://163.172.37.18:8000/radioethic.mp3"},
{"nom-radio": "Radio Fid\u00e9lit\u00e9", "flux": "http://80.82.229.202/fidelite.mp3"},
{"nom-radio": "Radio Flemme", "flux": "http://str45.streamakaci.com:8014/;"},
{"nom-radio": "Radio FMR", "flux": "http://giss.tv:8000/radio-fmr.mp3"},
{"nom-radio": "Radio Gal\u00e8re", "flux": "http://www.radiogalere.org:8080/galere.mp3"},
{"nom-radio": "Radio Gazelle", "flux": "http://france1.coollabel-productions.com:8134/stream"},
{"nom-radio": "Radio Gerard", "flux": "http://188.165.236.217:8000/;"},
{"nom-radio": "Radio Grenouille", "flux": "http://live.radiogrenouille.com/live"},
{"nom-radio": "Radio Judaica Strasbourg", "flux": "http://radiojudaicastrasbourg.ice.infomaniak.ch/radiojudaicastrasbourg-128.mp3"},
{"nom-radio": "Radio Junior", "flux": "http://213.186.61.62:8080/;"},
{"nom-radio": "Radio Kreiz Breizh", "flux": "http://rkb.online.radiobreizh.bzh/live.mp3"},
{"nom-radio": "Radio Larzac", "flux": "http://stream.radiolarzac.org:8000/radiolarzac"},
{"nom-radio": "Radio Latitude Troyes", "flux": "http://latitude.ice.infomaniak.ch/latitude-128.mp3"},
{"nom-radio": "R\u00e0dio Lenga d'\u00d2c", "flux": "http://91.121.147.40:8000/rlo-direct.mp3"},
{"nom-radio": "Radio Libertaire", "flux": "http://ecoutez.radio-libertaire.org:8080/radiolib"},
{"nom-radio": "Radio Marais", "flux": "https://rm.ice.infomaniak.ch/rm-192.aac"},
{"nom-radio": "Radio Mar\u00eda - France", "flux": "http://heberg.radioludo.com:8003/stream"},
{"nom-radio": "Radio Maritima", "flux": "http://radiomaritima.streamakaci.com/radiomaritima.mp3"},
{"nom-radio": "Radio Mau Nau", "flux": "http://82.236.163.73:8000/"},
{"nom-radio": "Radio M\u00e9lodie", "flux": "http://str0.creacast.com/melodie"},
{"nom-radio": "Radio Metropolys", "flux": "http://str0.creacast.com/metropolys"},
{"nom-radio": "Radio Meuh", "flux": "http://radiomeuh.ice.infomaniak.ch/radiomeuh-128.mp3"},
{"nom-radio": "Radio MNE", "flux": "http://ns378395.ip-5-196-68.eu:8000/airtime_192"},
{"nom-radio": "Radio Mont Blanc", "flux": "http://radiomontblanc1.ice.infomaniak.ch/radiomontblanc1-128.mp3"},
{"nom-radio": "Radio Nova", "flux": "http://broadcast.infomaniak.net/radionova-high.mp3"},
{"nom-radio": "Radio Nova Bordeaux", "flux": "http://snb.ice.infomaniak.ch/snb-high.mp3"},
{"nom-radio": "Radio Nova Lyon", "flux": "http://nova-lyon.ice.infomaniak.ch/nova-lyon-128.mp3"},
{"nom-radio": "Radio NTI", "flux": "http://streaming.radionti.com/nti-hd.mp3"},
{"nom-radio": "Radio Orient", "flux": "http://stream3.broadcast-associes.com:8405/Radio-Orient"},
{"nom-radio": "Radio Oxyg\u00e8ne", "flux": "http://stream.mengine.net:8006/stream"},
{"nom-radio": "Radio Paul Bert", "flux": "http://www.rpbfm.fr:8000/stream"},
{"nom-radio": "http://france16.coollabel-productions.com:8272/stream", "flux": "http://france16.coollabel-productions.com:8272/stream"},
{"nom-radio": "Radio Perfecto", "flux": "http://radioperfecto.net-radio.fr/perfecto.mp3"},
{"nom-radio": "Radio PFM", "flux": "http://178.33.237.20:8000/stream.mp3"},
{"nom-radio": "Radio Pitchoun", "flux": "https://listen.radioking.com/radio/81811/stream/120004"},
{"nom-radio": "Radio Plus", "flux": "https://radioplus2.ice.infomaniak.ch/radioplus.aac"},
{"nom-radio": "Radio Primitive", "flux": "http://www.radioprimitive.fr:8000/live"},
{"nom-radio": "Radio Rencontre", "flux": "https://listen.radioking.com/radio/153745/stream/194338"},
{"nom-radio": "Radio RVA", "flux": "http://rva.ice.infomaniak.ch/rva-high.mp3"},
{"nom-radio": "Radio Salve Regina", "flux": "http://stric6.streamakaci.com/radiosalveregina.mp3"},
{"nom-radio": "Radio Scoop Bourg en Bresse", "flux": "http://radioscoopbourg-en-bresse.ice.infomaniak.ch/radioscoop-bourg-128.mp3"},
{"nom-radio": "Radio Scoop Clermont-Ferrand", "flux": "http://radioscoopclermont-ferrand.ice.infomaniak.ch/radioscoop-clermont-128.mp3"},
{"nom-radio": "Radio Scoop Lyon", "flux": "http://radioscooplyon.ice.infomaniak.ch/radioscoop-lyon-128.mp3"},
{"nom-radio": "Radio Scoop Saint Etienne", "flux": "http://radioscoopsaintetienne.ice.infomaniak.ch/radioscoop-stetienne-128.mp3"},
{"nom-radio": "Radio Sensations", "flux": "http://sensations.ice.infomaniak.ch/sensations.mp3"},
{"nom-radio": "Radio Serenity", "flux": "http://streaming.radionomy.com/wiccaradio"},
{"nom-radio": "Radio Show", "flux": "http://www.radioking.com/play/radio-show"},
{"nom-radio": "Radio Star (Marseille)", "flux": "https://listen.radioking.com/radio/9728/stream/49346"},
{"nom-radio": "Radio Star (Montb\u00e9liard)", "flux": "http://radiostar.ice.infomaniak.ch/radiostar-128.mp3"},
{"nom-radio": "Radio Syst\u00e8me", "flux": "http://stream.radios-arra.fr:8000/radiosysteme"},
{"nom-radio": "Radio Ter", "flux": "http://62.210.215.26:8002/radioter"},
{"nom-radio": "Radio Vieille Eglise (RVE)", "flux": "http://str0.creacast.com/rve"},
{"nom-radio": "Radio Val-de-Meuse (RVM)", "flux": "http://stream.rvm.fr:8022/stream.mp3"},
{"nom-radio": "Radio Zinzine", "flux": "http://91.121.65.189:8000/3"},
{"nom-radio": "Radio Zinzine Aix", "flux": "http://91.121.65.189:8000/zinzine-aix"},
{"nom-radio": "RAJE", "flux": "https://raje.ice.infomaniak.ch/raje-128.mp3"},
{"nom-radio": "RFI Afrique", "flux": "http://live02.rfi.fr/rfiafrique-96k.mp3"},
{"nom-radio": "RFI Monde", "flux": "http://live02.rfi.fr/rfimonde-96k.mp3"},
{"nom-radio": "RFM", "flux": "http://rfm-live-mp3-128.scdn.arkena.com/rfm.mp3"},
{"nom-radio": "RFM Night Fever", "flux": "http://rfm-wr2-mp3-128.scdn.arkena.com/rfm.mp3"},
{"nom-radio": "RFM Party 80", "flux": "http://rfm-wr4-mp3-128.scdn.arkena.com/rfm.mp3"},
{"nom-radio": "RIG", "flux": "http://big1.coollabel-productions.com:8100/rigfm321.mp3"},
{"nom-radio": "Rire et chansons", "flux": null},
{"nom-radio": "http://cdn.nrjaudio.fm/audio1/fr/30401/mp3_128.mp3?origine=playerweb", "flux": null},
{"nom-radio": "http://185.52.127.157/fr/30407/mp3_128.mp3?origine=playerweb", "flux": null},
{"nom-radio": "RMC Info Talk Sport", "flux": "http://chai5she.cdn.dvmr.fr/rmcinfo"},
{"nom-radio": "RMV", "flux": "http://91.121.7.61:8200/"},
{"nom-radio": "RPL Radio", "flux": "https://listen.radioking.com/radio/2966/stream/63127"},
{"nom-radio": "RTL", "flux": "http://streaming.radio.rtl.fr/rtl-1-44-128"},
{"nom-radio": "RTL2", "flux": "http://streaming.radio.rtl2.fr/rtl2-1-44-96"},
{"nom-radio": "RTS FM", "flux": "http://stream.rtsfm.com:8000/;stream/1"},
{"nom-radio": "Sing Sing", "flux": "http://stream.sing-sing.org:8000/singsing128"},
{"nom-radio": "Skyrock", "flux": "http://icecast.skyrock.net/s/natio_mp3_128k"},
{"nom-radio": "SOL-FM 100.7", "flux": "http://stric6.streamakaci.com/solfm64.mp3"},
{"nom-radio": "SpuTnik France", "flux": "https://nfw.ria.ru/flv/audio.aspx?ID=6854085&type=mp3"},
{"nom-radio": "Sud Radio", "flux": "https://start-sud.ice.infomaniak.ch/start-sud-high.mp3"},
{"nom-radio": "Sun", "flux": "http://80.82.229.202:8000/sunhd.mp3"},
{"nom-radio": "Sweet FM", "flux": "http://dedibox-linux.sweetfm.fr:8000/lms"},
{"nom-radio": "Swing FM", "flux": "http://swingfm.ice.infomaniak.ch/swingfm-128"},
{"nom-radio": "Timbre fm", "flux": "http://5.39.86.216:8666/timbrefm"},
{"nom-radio": "Tendance Ouest", "flux": "http://streaming.tendanceouest.com/tomanche.mp3"},
{"nom-radio": "Tonic Radio", "flux": "http://hit-sport.ice.infomaniak.ch/hit-sport-high.mp3"},
{"nom-radio": "Top Music", "flux": "http://str0.creacast.com/topmusic1"},
{"nom-radio": "TSF Jazz", "flux": "http://broadcast.infomaniak.net/tsfjazz-high.mp3"},
{"nom-radio": "Welsass", "flux": "http://welsass.fr/play"},
{"nom-radio": "Wit FM", "flux": "http://broadcast.infomaniak.net/start-witfm-high.mp3"},
{"nom-radio": "Yvelines Radio", "flux": "http://yvelinesradio884fm.ice.infomaniak.ch/yvelinesradio884fm-96.aac"},
{"nom-radio": "Zen Radio", "flux": "http://flux1.zenradio.fr:8800/"},
{"nom-radio": "ZJM", "flux": "http://zjm.ice.infomaniak.ch/zjm-128.aac"}
]