[
  {
    "flux": "http://stream.p-node.org/pnode.mp3",
    "nom_radio": "\u03c0 Node"
  },
  {
    "flux": "http://100radio-albi.ice.infomaniak.ch/100radio-albi-128.mp3",
    "nom_radio": "100% Radio"
  },
  {
    "flux": "http://streaming.radionomy.com/AxelAime432Hz",
    "nom_radio": "432Hz Radio"
  },
  {
    "flux": "http://streaming.radionomy.com/4U-Funky-Classics",
    "nom_radio": "4U Radios - All Funky Classics"
  },
  {
    "flux": "http://radio666.net:8000/",
    "nom_radio": "666"
  },
  {
    "flux": "http://stream1.addictradio.net/addictalternative.mp3",
    "nom_radio": "Addict Alternative"
  },
  {
    "flux": "http://stream1.addictradio.net/addictlounge.mp3",
    "nom_radio": "Addict Lounge"
  },
  {
    "flux": "http://stream1.addictradio.net/addictrock.mp3",
    "nom_radio": "Addict Rock"
  },
  {
    "flux": "http://stream1.addictradio.net/addictstar.mp3",
    "nom_radio": "Addict Star"
  },
  {
    "flux": "http://start-adofm.ice.infomaniak.ch/start-adofm-high.mp3",
    "nom_radio": "Ado FM"
  },
  {
    "flux": "https://african1paris.ice.infomaniak.ch/african1paris-128.mp3",
    "nom_radio": "Africa n\u00b01"
  },
  {
    "flux": "http://agoracotedazur.ice.infomaniak.ch/agoracotedazur.mp3",
    "nom_radio": "Agora C\u00f4te d'Azur"
  },
  {
    "flux": "http://vt-net.org:8056/;",
    "nom_radio": "Aleo"
  },
  {
    "flux": "http://live3.vestaradio.com/aligrefm",
    "nom_radio": "Aligre FM"
  },
  {
    "flux": "http://alouette.ice.infomaniak.ch/alouette-high.mp3",
    "nom_radio": "Alouette"
  },
  {
    "flux": "http://alpes1gap.ice.infomaniak.ch/alpes1gap-high.mp3",
    "nom_radio": "Alpes 1 Gap"
  },
  {
    "flux": "http://alpes1grenoble.ice.infomaniak.ch/alpes1grenoble-high.mp3",
    "nom_radio": "Alpes 1 Grenoble"
  },
  {
    "flux": "https://altacanzona.streamakaci.com/altacanzona.mp3",
    "nom_radio": "Alta Canzona Corsa"
  },
  {
    "flux": "https://altafrequenza.streamakaci.com/altafrequenza.mp3",
    "nom_radio": "Alta Frequenza"
  },
  {
    "flux": "http://diffusion.lafrap.fr/alternantes.ogg",
    "nom_radio": "AlterNantes FM"
  },
  {
    "flux": "http://arvorig-fm.online.radiobreizh.bzh/live.mp3",
    "nom_radio": "Arvorig FM"
  },
  {
    "flux": "https://stric6.streamakaci.com/radioayp.mp3",
    "nom_radio": "AYP FM"
  },
  {
    "flux": "http://listen.radioking.com/radio/74173/stream/112156",
    "nom_radio": "AZUR FM 67 - S\u00e9lestat"
  },
  {
    "flux": "http://listen.radioking.com/radio/74176/stream/112165",
    "nom_radio": "AZUR FM 68 - Colmar"
  },
  {
    "flux": "http://94.23.21.126:10050/stream/1/",
    "nom_radio": "Banquise FM"
  },
  {
    "flux": "http://bayoublueradio.com:8000/live",
    "nom_radio": "Bayou Blue Radio"
  },
  {
    "flux": "http://broadcast.infomaniak.ch/beurfm-high.mp3",
    "nom_radio": "Beur FM"
  },
  {
    "flux": "http://bfmbusiness.cdn.dvmr.fr/bfmbusiness",
    "nom_radio": "BFM"
  },
  {
    "flux": "http://relay1.bide-et-musique.com:9100/",
    "nom_radio": "Bide et Musique"
  },
  {
    "flux": "http://giss.tv:8000/booster-tlse.mp3",
    "nom_radio": "Booster FM"
  },
  {
    "flux": "http://stream.c9.fr/c9.mp3",
    "nom_radio": "C9 Radio"
  },
  {
    "flux": "http://stream.c-lab.fr:8001/c-lab",
    "nom_radio": "C Lab"
  },
  {
    "flux": "http://stream.levillage.org/canalb",
    "nom_radio": "CanalB"
  },
  {
    "flux": "http://91.224.148.160:8000/canalsud-live",
    "nom_radio": "Canal Sud"
  },
  {
    "flux": "https://icecast.libre-a-toi.org:8444/voixdulat_mp3",
    "nom_radio": "Cause Commune"
  },
  {
    "flux": "https://cannesradio.ice.infomaniak.ch/cannesradio-128.mp3",
    "nom_radio": "Cannes Radio"
  },
  {
    "flux": "https://cerisefm.ice.infomaniak.ch/cerisefm-128.mp3",
    "nom_radio": "Cerise FM"
  },
  {
    "flux": "http://stream1.evasionfm.com/Chante_France",
    "nom_radio": "Chante France"
  },
  {
    "flux": "http://cdn.nrjaudio.fm/audio1/fr/30201/mp3_128.mp3?origine=playerweb",
    "nom_radio": "Ch\u00e9rie FM"
  },
  {
    "flux": "http://clindoeilfm1061.ice.infomaniak.ch/clindoeilfm1061-128.mp3",
    "nom_radio": "Clin d'oeil FM"
  },
  {
    "flux": "http://radiocristal.ice.infomaniak.ch/radiocristal-high.mp3",
    "nom_radio": "Cristal FM"
  },
  {
    "flux": "http://stream.crooner.fr/crooner",
    "nom_radio": "Crooner Radio"
  },
  {
    "flux": "http://collineslaradio.ice.infomaniak.ch/collineslaradio-128.mp3",
    "nom_radio": "Collines"
  },
  {
    "flux": "http://radio-contact.ice.infomaniak.ch/radio-contact-high.mp3",
    "nom_radio": "Contact"
  },
  {
    "flux": "http://stream.srg-ssr.ch/m/couleur3/mp3_128",
    "nom_radio": "Couleur3.fr"
  },
  {
    "flux": "http://stream.demoisellefm.com:8000/rochefort-192.mp3",
    "nom_radio": "Demoiselle FM"
  },
  {
    "flux": "http://go.dhits.net/live.mp3",
    "nom_radio": "DHits"
  },
  {
    "flux": "http://ridibundus.divergence-fm.org:8000/divergence.ogg",
    "nom_radio": "Divergence Fm"
  },
  {
    "flux": "http://ledjamradio.ice.infomaniak.ch/ledjamradio.mp3",
    "nom_radio": "Djamradio"
  },
  {
    "flux": "http://radio.dogmazic.net:8000/stream.mp3",
    "nom_radio": "Dogmazic/Radio Libre"
  },
  {
    "flux": "http://radiodreyeckland.ice.infomaniak.ch/radiodreyeckland-128.mp3",
    "nom_radio": "Dreyeckland"
  },
  {
    "flux": "http://player.enjoystation.fr/",
    "nom_radio": "EnjoyStation"
  },
  {
    "flux": "http://listen.radioking.com/radio/16769/stream/49487",
    "nom_radio": "Espace FM"
  },
  {
    "flux": "http://80.82.229.202:8000/euradio.mp3",
    "nom_radio": "Euradio"
  },
  {
    "flux": "http://euronews-01.ice.infomaniak.ch/euronews-01.aac",
    "nom_radio": "Euronews Radio"
  },
  {
    "flux": "http://mp3lg3.scdn.arkena.com/10489/europe1.mp3",
    "nom_radio": "Europe 1"
  },
  {
    "flux": "http://stream1.evasionfm.com/Yvelines",
    "nom_radio": "Evasion FM"
  },
  {
    "flux": "http://www.radiofg.com/",
    "nom_radio": "FG (FM)"
  },
  {
    "flux": "http://www.radiofg.com/",
    "nom_radio": "FG (FM)"
  },
  {
    "flux": "http://radiofg.be/",
    "nom_radio": "FG Vlaanderen Belgium"
  },
  {
    "flux": "http://www.radiofg.com/live-fg-chic-12",
    "nom_radio": "FG Chic"
  },
  {
    "flux": "http://www.radiofg.com/live-fg-club-17",
    "nom_radio": "FG Club"
  },
  {
    "flux": "http://www.radiofg.com/live-fg-deep-dance-11",
    "nom_radio": "FG Dance by Hakimakli"
  },
  {
    "flux": "http://www.radiofg.com/live-fg-international-16",
    "nom_radio": "FG Non Stop"
  },
  {
    "flux": "http://www.radiofg.com/live-fg-gay-party-14",
    "nom_radio": "FG Starter"
  },
  {
    "flux": "http://www.radiofg.com/live-maxximum-19",
    "nom_radio": "FG Maxximun 90's"
  },
  {
    "flux": "http://www.radiofg.com/live-fg-underground-13",
    "nom_radio": "FG Underground"
  },
  {
    "flux": "http://direct.fipradio.fr/live/fip-midfi.mp3",
    "nom_radio": "FIP"
  },
  {
    "flux": "http://stream.florfm.com:8000/florfm.mp3",
    "nom_radio": "Flor FM"
  },
  {
    "flux": "http://163.172.90.98:8000/livefox",
    "nom_radio": "Fox Radio"
  },
  {
    "flux": "http://direct.francebleu.fr/live/fbalsace-midfi.mp3",
    "nom_radio": "France Bleu"
  },
  {
    "flux": "http://direct.franceculture.fr/live/franceculture-midfi.mp3",
    "nom_radio": "France Culture"
  },
  {
    "flux": "http://direct.franceinfo.fr/live/franceinfo-midfi.mp3",
    "nom_radio": "France Info"
  },
  {
    "flux": "http://direct.franceinter.fr/live/franceinter-midfi.mp3",
    "nom_radio": "France Inter"
  },
  {
    "flux": "https://francemaghreb2.ice.infomaniak.ch/francemaghreb2-high.mp3",
    "nom_radio": "France Maghreb 2"
  },
  {
    "flux": "http://direct.francemusique.fr/live/francemusique-midfi.mp3",
    "nom_radio": "France Musique"
  },
  {
    "flux": "",
    "nom_radio": "French Kiss FM"
  },
  {
    "flux": "",
    "nom_radio": "Fr\u00e9quence Jazz"
  },
  {
    "flux": "http://frequencek.ice.infomaniak.ch/frequencek-128.mp3",
    "nom_radio": "Fr\u00e9quence K"
  },
  {
    "flux": "http://stream.radios-arra.fr:8000/frequenceluz",
    "nom_radio": "Frequence Luz"
  },
  {
    "flux": "http://radio.toile-libre.org:8000/fpp.mp3",
    "nom_radio": "Fr\u00e9quence Paris Plurielle"
  },
  {
    "flux": "http://freqplus.ice.infomaniak.ch/freqplus-high.mp3",
    "nom_radio": "Frequence Plus"
  },
  {
    "flux": "http://hd.stream.frequence3.net/frequence3-128.mp3",
    "nom_radio": "Frequence3"
  },
  {
    "flux": "http://92.175.228.15:8000/stream.mp3",
    "nom_radio": "Fugi FM"
  },
  {
    "flux": "http://streaming.radio.funradio.fr/fun-1-44-128",
    "nom_radio": "Fun Radio France"
  },
  {
    "flux": "http://listen.radionomy.com/fuzzy-and-groovy.m3u",
    "nom_radio": "Fuzzy & Groovy Rock Radio"
  },
  {
    "flux": "https://listen.radioking.com/radio/15684/stream/29075",
    "nom_radio": "Galaxie FM 95.30"
  },
  {
    "flux": "http://www.generationdiscofunk.com/pls/hd.m3u",
    "nom_radio": "GENERATION SOUL DISCO FUNK - La R\u00e9f\u00e9rence Soul, Disco, Funk !"
  },
  {
    "flux": "http://generationfm.ice.infomaniak.ch/generationfm-high.mp3",
    "nom_radio": "Generations FM"
  },
  {
    "flux": "http://80.82.229.202:8000/graffiti.mp3",
    "nom_radio": "Graffiti Urban-Radio 88.6 FM La Roche sur Yon"
  },
  {
    "flux": "https://str0.creacast.com/grandlilleinfos",
    "nom_radio": "Grand Lille Info"
  },
  {
    "flux": "http://91.121.29.128:8058/stream",
    "nom_radio": "Grimaldi FM"
  },
  {
    "flux": "http://213.246.51.78:9290/;",
    "nom_radio": "HAG FM"
  },
  {
    "flux": "http://happyfm.ice.infomaniak.ch/happyfm-128.mp3",
    "nom_radio": "Happy FM"
  },
  {
    "flux": "https://www.radioking.com/play/grandsud/223459",
    "nom_radio": "Hits1 radio"
  },
  {
    "flux": "http://91.121.86.78:8012/;stream.mp3",
    "nom_radio": "Hits1 latina"
  },
  {
    "flux": "http://broadcast.infomaniak.ch/hitwest-high.mp3",
    "nom_radio": "Hit West"
  },
  {
    "flux": "https://horizonradio-bethunelens.ice.infomaniak.ch/horizonradio-bethunelens-128",
    "nom_radio": "Horizon Radio"
  },
  {
    "flux": "http://streamingads.hotmixradio.fm/hotmixradio-dance-128.mp3",
    "nom_radio": "Hotmix Radio"
  },
  {
    "flux": "http://streamingads.hotmixradio.fm/hotmixradio-80-128.mp3",
    "nom_radio": "Hotmix Radio 80's"
  },
  {
    "flux": "http://streamingads.hotmixradio.fm/hotmixradio-90-128.mp3",
    "nom_radio": "Hotmix Radio 90's"
  },
  {
    "flux": "http://streaming.hotmixradio.fm/hotmixradio-funky-128.mp3",
    "nom_radio": "Hotmix Radio Funky"
  },
  {
    "flux": "http://radio.rim952.fr:8001/stream.ogg",
    "nom_radio": "Ici & Maintenant !"
  },
  {
    "flux": "http://live.idfm98.fr:8000/idfm.m3u",
    "nom_radio": "idFM Radio Enghien"
  },
  {
    "flux": "http://intensite.net:9010/",
    "nom_radio": "Intensit\u00e9"
  },
  {
    "flux": "http://jazzradio.ice.infomaniak.ch/jazzradio-high.mp3",
    "nom_radio": "Jazz Radio"
  },
  {
    "flux": "http://80.82.229.202:8000/jetfm.mp3",
    "nom_radio": "JetFm (Nantes)"
  },
  {
    "flux": "http://k6fm.ice.infomaniak.ch/k6fm-64.aac",
    "nom_radio": "K6 FM"
  },
  {
    "flux": "http://kerne.online.stalig.net/live.mp3",
    "nom_radio": "Radio Kerne"
  },
  {
    "flux": "http://kissfm2.ice.infomaniak.ch/kissfm2-128.mp3",
    "nom_radio": "Kiss FM"
  },
  {
    "flux": "http://kisswestcoast.ice.infomaniak.ch/kisswestcoast-64.aac",
    "nom_radio": "kisswestcoast"
  },
  {
    "flux": "http://radio.lacdo.org/stream",
    "nom_radio": "La Cl\u00e9 des Ondes"
  },
  {
    "flux": "http://broadcast.infomaniak.net/start-latina-high.mp3",
    "nom_radio": "Latina"
  },
  {
    "flux": "http://91.121.159.124:8000/eko-des-garrigues-256k.ogg",
    "nom_radio": "L'Eko des Garrigues"
  },
  {
    "flux": "http://stream.letsgozik.com:8000/letsgozik",
    "nom_radio": "Let's Go Zik"
  },
  {
    "flux": "http://audio.libre-a-toi.org:8000/voixdulat_ogg",
    "nom_radio": "Libre \u00e0 toi"
  },
  {
    "flux": "http://stream.libreantenne.org/listen.opus",
    "nom_radio": "LibreAntenne.org"
  },
  {
    "flux": "http://lorfm.ice.infomaniak.ch/lorfm-128.mp3",
    "nom_radio": "Lor'FM"
  },
  {
    "flux": "http://str0.creacast.com/magnum",
    "nom_radio": "Magnum La Radio"
  },
  {
    "flux": "http://stream.maxifrance.fr:8358/stream",
    "nom_radio": "Maxi France"
  },
  {
    "flux": "http://stream1.evasionfm.com/mbs",
    "nom_radio": "MBS Classic Gold"
  },
  {
    "flux": "http://streaming.radionomy.com/Mediterraneo-SMOOTHJAZZ]%20%20*%20[[https://www.melody.tv/radio/",
    "nom_radio": "Mediterraneo Smooth Jazz"
  },
  {
    "flux": "http://mfm.ice.infomaniak.ch/mfm-128.mp3",
    "nom_radio": "MFM"
  },
  {
    "flux": "http://www.radio-mdm.fr:8000/listen.pls",
    "nom_radio": "Radio MDM"
  },
  {
    "flux": "http://mixxfmfr.ice.infomaniak.ch/mixxfmfr-192.mp3",
    "nom_radio": "Mixx Radio"
  },
  {
    "flux": "http://monafm.ice.infomaniak.ch/monafm-high.mp3",
    "nom_radio": "Mona FM"
  },
  {
    "flux": "http://live02.mc-doualiya.com/mc-doualiya.mp3",
    "nom_radio": "Monte Carlo Doualiya (Anciennement RMC Moyen Orient)"
  },
  {
    "flux": "http://stream.fr.morow.com:8080/morow_med.mp3",
    "nom_radio": "Morow - Rock Progressif"
  },
  {
    "flux": "http://direct.mouv.fr/live/mouv-midfi.mp3",
    "nom_radio": "Mouv'"
  },
  {
    "flux": "http://direct.mouv.fr/live/mouvxtra-midfi.mp3",
    "nom_radio": "Mouv' Xtra"
  },
  {
    "flux": "http://streaming.radionomy.com/MusicalSpaRadio",
    "nom_radio": "Musical Spa Radio"
  },
  {
    "flux": "https://naradio.ice.infomaniak.ch/naradio-192.mp3",
    "nom_radio": "NA Radio"
  },
  {
    "flux": "http://stream.radioneo.org:8000/;",
    "nom_radio": "NEO"
  },
  {
    "flux": "http://niceradio.stream.ideocast.fr:8000/niceradio.mp3",
    "nom_radio": "Nice Radio"
  },
  {
    "flux": "http://cdn.nrjaudio.fm/audio1/fr/30601/mp3_128.mp3?origine=playerweb",
    "nom_radio": "Nostalgie"
  },
  {
    "flux": "http://cdn.nrjaudio.fm/audio1/fr/30001/mp3_128.mp3?origine=playernrj",
    "nom_radio": "NRJ"
  },
  {
    "flux": "http://91.121.176.26:7900/;",
    "nom_radio": "O2 Radio (Bordeaux)"
  },
  {
    "flux": "http://oceanefm.ice.infomaniak.ch/oceanefm-128.mp3",
    "nom_radio": "Oc\u00e9ane Fm"
  },
  {
    "flux": "http://stream.ondecourte.fr/radio.ogg",
    "nom_radio": "Onde courte"
  },
  {
    "flux": "http://stream.ouifm.fr/ouifm-high.mp3",
    "nom_radio": "O\u00dcI FM"
  },
  {
    "flux": "http://alternatif.stream.ouifm.fr/ouifm2.mp3",
    "nom_radio": "O\u00dcI FM Alternatif"
  },
  {
    "flux": "http://classicrock.stream.ouifm.fr/ouifm3.mp3",
    "nom_radio": "O\u00dcI FM Classic Rock"
  },
  {
    "flux": "http://bluesnrock.stream.ouifm.fr/ouifmbluesnrock-128.mp3",
    "nom_radio": "O\u00dcI FM Blues'n'Rock"
  },
  {
    "flux": "http://rockinde.stream.ouifm.fr/ouifm5.mp3",
    "nom_radio": "O\u00dcI FM Rock ind\u00e9"
  },
  {
    "flux": "http://ganja.stream.ouifm.fr/ouifmganja-128.mp3",
    "nom_radio": "O\u00dcI FM Ganja"
  },
  {
    "flux": "http://guadeloupe.la1ere.fr/",
    "nom_radio": "Outre-Mer 1\u00e8re"
  },
  {
    "flux": "http://guadeloupe.la1ere.fr/",
    "nom_radio": "Guadeloupe 1\u00e8re"
  },
  {
    "flux": "http://guyane.la1ere.fr/",
    "nom_radio": "Guyane 1\u00e8re"
  },
  {
    "flux": "http://martinique.la1ere.fr/",
    "nom_radio": "Martinique 1\u00e8re"
  },
  {
    "flux": "http://mayotte.la1ere.fr/",
    "nom_radio": "Mayotte 1\u00e8re"
  },
  {
    "flux": "http://nouvellecaledonie.la1ere.fr/",
    "nom_radio": "Nouvelle Cal\u00e9donie 1\u00e8re"
  },
  {
    "flux": "http://polynesie.la1ere.fr/",
    "nom_radio": "Polyn\u00e9sie 1\u00e8re"
  },
  {
    "flux": "http://reunion.la1ere.fr/",
    "nom_radio": "R\u00e9union 1\u00e8re"
  },
  {
    "flux": "http://saintpierremiquelon.la1ere.fr/",
    "nom_radio": "Saint-Pierre-et-Miquelon 1\u00e8re"
  },
  {
    "flux": "http://wallisfutuna.la1ere.fr/",
    "nom_radio": "Wallis et Futuna 1\u00e8re"
  },
  {
    "flux": "https://radio6-calais.ice.infomaniak.ch/radio6-calais-128.mp3",
    "nom_radio": "Radio 6 Calais"
  },
  {
    "flux": "https://radio8.ice.infomaniak.ch/radio8-128.mp3",
    "nom_radio": "Radio 8 Ardennes"
  },
  {
    "flux": "http://live2.radio87.fr/",
    "nom_radio": "Radio87"
  },
  {
    "flux": "http://str0.creacast.com/accent4",
    "nom_radio": "Radio Accent 4"
  },
  {
    "flux": "http://5.39.87.10:9860/paris",
    "nom_radio": "Radio Alfa"
  },
  {
    "flux": "http://stream.radio-activ.com/",
    "nom_radio": "Radio Activ'"
  },
  {
    "flux": "http://str0.creacast.com/arcencielweb",
    "nom_radio": "Radio Arc-en-Ciel Strasbourg"
  },
  {
    "flux": "http://51.254.220.198:8000/stream.mp3",
    "nom_radio": "Radio B\u00e9ton"
  },
  {
    "flux": "http://www4.radiorbs.com:8000/RBS",
    "nom_radio": "Radio Bienvenue Strasbourg"
  },
  {
    "flux": "http://dabboomerang2.dyndns.org:8091/;",
    "nom_radio": "Radio Boomerang"
  },
  {
    "flux": "http://rbg.online.radiobreizh.bzh/live.mp3",
    "nom_radio": "Radio-Bro-Gwened"
  },
  {
    "flux": "http://heberg.radioludo.com:8076/stream.mp3",
    "nom_radio": "Radio Bouton"
  },
  {
    "flux": "http://www.radiocampus.fr:8000/amiens",
    "nom_radio": "Radio Campus Amiens"
  },
  {
    "flux": "http://80.82.229.202/rca",
    "nom_radio": "Radio Campus Angers"
  },
  {
    "flux": "http://www.radiocampus.fr:8000/campus-bordeaux",
    "nom_radio": "Radio Campus Bordeaux"
  },
  {
    "flux": "http://campus.abeille.com:8000/campus",
    "nom_radio": "Radio Campus Clermont"
  },
  {
    "flux": "http://live.campusgrenoble.org:9000/rcg112",
    "nom_radio": "Radio Campus Grenoble"
  },
  {
    "flux": "http://radiocampuslille.ice.infomaniak.ch/radiocampuslille-96.aac",
    "nom_radio": "Radio Campus Lille"
  },
  {
    "flux": "http://orleans.radiocampus.org:8000/stream_rco",
    "nom_radio": "Radio Campus Orl\u00e9ans"
  },
  {
    "flux": "http://live.radio-campus.org:8000/toulouse",
    "nom_radio": "Radio Campus Toulouse"
  },
  {
    "flux": "http://91.121.120.214:8000/webradiocampustours",
    "nom_radio": "Radio Campus Tours"
  },
  {
    "flux": "http://live.francra.org:8000/radiocanut",
    "nom_radio": "Radio Canut"
  },
  {
    "flux": "http://str0.creacast.com/capsao_b",
    "nom_radio": "Radio CAPSAO"
  },
  {
    "flux": "https://radiocast-002.m2network.fr:8443/radiocaroline.mp3",
    "nom_radio": "Radio Caroline"
  },
  {
    "flux": "http://rcnradiochalomcotedazur.ice.infomaniak.ch/rcnradiochalomcotedazur-128.mp3",
    "nom_radio": "Radio Chalom Nitsan (RCN)"
  },
  {
    "flux": "http://listen.radioking.com/radio/3086/stream/9476",
    "nom_radio": "Radio Cit\u00e9 Vauban (RCV)"
  },
  {
    "flux": "",
    "nom_radio": "Radio Clapas"
  },
  {
    "flux": "",
    "nom_radio": "Radio Classique"
  },
  {
    "flux": "http://radiocourtoisie.nex-informatique.com/;",
    "nom_radio": "Radio Courtoisie"
  },
  {
    "flux": "http://stream.inovacast.fr:8888/stream",
    "nom_radio": "Radio Cristal"
  },
  {
    "flux": "http://live.francra.org:8000/RadioDio",
    "nom_radio": "Radio Dio"
  },
  {
    "flux": "http://sv3.vestaradio.com:4060/;stream.mp3",
    "nom_radio": "Radio Dreyeckland Libre 68 (RDL68)"
  },
  {
    "flux": "http://str30.creacast.com/ecn1",
    "nom_radio": "Radio ECN"
  },
  {
    "flux": "http://efm.elliptic.fr:8030/",
    "nom_radio": "Radio EFM"
  },
  {
    "flux": "http://str0.creacast.com/rec",
    "nom_radio": "Radio En Construction (R.E.C.)"
  },
  {
    "flux": "http://radioemotion.ice.infomaniak.ch/radioemotion-128.mp3",
    "nom_radio": "Radio \u00c9motion"
  },
  {
    "flux": "http://stream.radios-arra.fr:8000/radioescapades",
    "nom_radio": "Radio Escapades"
  },
  {
    "flux": "http://radioespace.ice.infomaniak.ch/radioespace-high.mp3",
    "nom_radio": "Radio Espace"
  },
  {
    "flux": "https://esperance.streamakaci.com/esperance.mp3",
    "nom_radio": "Radio Esp\u00e9rance"
  },
  {
    "flux": "http://163.172.37.18:8000/radioethic.mp3",
    "nom_radio": "Radio Ethic"
  },
  {
    "flux": "http://80.82.229.202/fidelite.mp3",
    "nom_radio": "Radio Fid\u00e9lit\u00e9"
  },
  {
    "flux": "http://str45.streamakaci.com:8014/;",
    "nom_radio": "Radio Flemme"
  },
  {
    "flux": "http://giss.tv:8000/radio-fmr.mp3",
    "nom_radio": "Radio FMR"
  },
  {
    "flux": "http://www.radiogalere.org:8080/galere.mp3",
    "nom_radio": "Radio Gal\u00e8re"
  },
  {
    "flux": "http://france1.coollabel-productions.com:8134/stream",
    "nom_radio": "Radio Gazelle"
  },
  {
    "flux": "http://188.165.236.217:8000/;",
    "nom_radio": "Radio Gerard"
  },
  {
    "flux": "http://live.radiogrenouille.com/live",
    "nom_radio": "Radio Grenouille"
  },
  {
    "flux": "http://radiojudaicastrasbourg.ice.infomaniak.ch/radiojudaicastrasbourg-128.mp3",
    "nom_radio": "Radio Judaica Strasbourg"
  },
  {
    "flux": "http://213.186.61.62:8080/;",
    "nom_radio": "Radio Junior"
  },
  {
    "flux": "http://rkb.online.radiobreizh.bzh/live.mp3",
    "nom_radio": "Radio Kreiz Breizh"
  },
  {
    "flux": "http://stream.radiolarzac.org:8000/radiolarzac",
    "nom_radio": "Radio Larzac"
  },
  {
    "flux": "http://latitude.ice.infomaniak.ch/latitude-128.mp3",
    "nom_radio": "Radio Latitude Troyes"
  },
  {
    "flux": "http://91.121.147.40:8000/rlo-direct.mp3",
    "nom_radio": "R\u00e0dio Lenga d'\u00d2c"
  },
  {
    "flux": "http://ecoutez.radio-libertaire.org:8080/radiolib",
    "nom_radio": "Radio Libertaire"
  },
  {
    "flux": "https://rm.ice.infomaniak.ch/rm-192.aac",
    "nom_radio": "Radio Marais"
  },
  {
    "flux": "http://heberg.radioludo.com:8003/stream",
    "nom_radio": "Radio Mar\u00eda - France"
  },
  {
    "flux": "http://radiomaritima.streamakaci.com/radiomaritima.mp3",
    "nom_radio": "Radio Maritima"
  },
  {
    "flux": "http://82.236.163.73:8000/",
    "nom_radio": "Radio Mau Nau"
  },
  {
    "flux": "http://str0.creacast.com/melodie",
    "nom_radio": "Radio M\u00e9lodie"
  },
  {
    "flux": "http://str0.creacast.com/metropolys",
    "nom_radio": "Radio Metropolys"
  },
  {
    "flux": "http://radiomeuh.ice.infomaniak.ch/radiomeuh-128.mp3",
    "nom_radio": "Radio Meuh"
  },
  {
    "flux": "http://ns378395.ip-5-196-68.eu:8000/airtime_192",
    "nom_radio": "Radio MNE"
  },
  {
    "flux": "http://radiomontblanc1.ice.infomaniak.ch/radiomontblanc1-128.mp3",
    "nom_radio": "Radio Mont Blanc"
  },
  {
    "flux": "http://broadcast.infomaniak.net/radionova-high.mp3",
    "nom_radio": "Radio Nova"
  },
  {
    "flux": "http://snb.ice.infomaniak.ch/snb-high.mp3",
    "nom_radio": "Radio Nova Bordeaux"
  },
  {
    "flux": "http://nova-lyon.ice.infomaniak.ch/nova-lyon-128.mp3",
    "nom_radio": "Radio Nova Lyon"
  },
  {
    "flux": "http://streaming.radionti.com/nti-hd.mp3",
    "nom_radio": "Radio NTI"
  },
  {
    "flux": "http://stream3.broadcast-associes.com:8405/Radio-Orient",
    "nom_radio": "Radio Orient"
  },
  {
    "flux": "http://stream.mengine.net:8006/stream",
    "nom_radio": "Radio Oxyg\u00e8ne"
  },
  {
    "flux": "http://www.rpbfm.fr:8000/stream",
    "nom_radio": "Radio Paul Bert"
  },
  {
    "flux": "http://france16.coollabel-productions.com:8272/stream",
    "nom_radio": "http://france16.coollabel-productions.com:8272/stream"
  },
  {
    "flux": "http://radioperfecto.net-radio.fr/perfecto.mp3",
    "nom_radio": "Radio Perfecto"
  },
  {
    "flux": "http://178.33.237.20:8000/stream.mp3",
    "nom_radio": "Radio PFM"
  },
  {
    "flux": "https://listen.radioking.com/radio/81811/stream/120004",
    "nom_radio": "Radio Pitchoun"
  },
  {
    "flux": "https://radioplus2.ice.infomaniak.ch/radioplus.aac",
    "nom_radio": "Radio Plus"
  },
  {
    "flux": "http://www.radioprimitive.fr:8000/live",
    "nom_radio": "Radio Primitive"
  },
  {
    "flux": "https://listen.radioking.com/radio/153745/stream/194338",
    "nom_radio": "Radio Rencontre"
  },
  {
    "flux": "http://rva.ice.infomaniak.ch/rva-high.mp3",
    "nom_radio": "Radio RVA"
  },
  {
    "flux": "http://stric6.streamakaci.com/radiosalveregina.mp3",
    "nom_radio": "Radio Salve Regina"
  },
  {
    "flux": "http://radioscoopbourg-en-bresse.ice.infomaniak.ch/radioscoop-bourg-128.mp3",
    "nom_radio": "Radio Scoop Bourg en Bresse"
  },
  {
    "flux": "http://radioscoopclermont-ferrand.ice.infomaniak.ch/radioscoop-clermont-128.mp3",
    "nom_radio": "Radio Scoop Clermont-Ferrand"
  },
  {
    "flux": "http://radioscooplyon.ice.infomaniak.ch/radioscoop-lyon-128.mp3",
    "nom_radio": "Radio Scoop Lyon"
  },
  {
    "flux": "http://radioscoopsaintetienne.ice.infomaniak.ch/radioscoop-stetienne-128.mp3",
    "nom_radio": "Radio Scoop Saint Etienne"
  },
  {
    "flux": "http://sensations.ice.infomaniak.ch/sensations.mp3",
    "nom_radio": "Radio Sensations"
  },
  {
    "flux": "http://streaming.radionomy.com/wiccaradio",
    "nom_radio": "Radio Serenity"
  },
  {
    "flux": "http://www.radioking.com/play/radio-show",
    "nom_radio": "Radio Show"
  },
  {
    "flux": "https://listen.radioking.com/radio/9728/stream/49346",
    "nom_radio": "Radio Star (Marseille)"
  },
  {
    "flux": "http://radiostar.ice.infomaniak.ch/radiostar-128.mp3",
    "nom_radio": "Radio Star (Montb\u00e9liard)"
  },
  {
    "flux": "http://stream.radios-arra.fr:8000/radiosysteme",
    "nom_radio": "Radio Syst\u00e8me"
  },
  {
    "flux": "http://62.210.215.26:8002/radioter",
    "nom_radio": "Radio Ter"
  },
  {
    "flux": "http://str0.creacast.com/rve",
    "nom_radio": "Radio Vieille Eglise (RVE)"
  },
  {
    "flux": "http://stream.rvm.fr:8022/stream.mp3",
    "nom_radio": "Radio Val-de-Meuse (RVM)"
  },
  {
    "flux": "http://91.121.65.189:8000/3",
    "nom_radio": "Radio Zinzine"
  },
  {
    "flux": "http://91.121.65.189:8000/zinzine-aix",
    "nom_radio": "Radio Zinzine Aix"
  },
  {
    "flux": "https://raje.ice.infomaniak.ch/raje-128.mp3",
    "nom_radio": "RAJE"
  },
  {
    "flux": "http://live02.rfi.fr/rfiafrique-96k.mp3",
    "nom_radio": "RFI Afrique"
  },
  {
    "flux": "http://live02.rfi.fr/rfimonde-96k.mp3",
    "nom_radio": "RFI Monde"
  },
  {
    "flux": "http://rfm-live-mp3-128.scdn.arkena.com/rfm.mp3",
    "nom_radio": "RFM"
  },
  {
    "flux": "http://rfm-wr2-mp3-128.scdn.arkena.com/rfm.mp3",
    "nom_radio": "RFM Night Fever"
  },
  {
    "flux": "http://rfm-wr4-mp3-128.scdn.arkena.com/rfm.mp3",
    "nom_radio": "RFM Party 80"
  },
  {
    "flux": "http://big1.coollabel-productions.com:8100/rigfm321.mp3",
    "nom_radio": "RIG"
  },
  {
    "flux": "",
    "nom_radio": "Rire et chansons"
  },
  {
    "flux": "",
    "nom_radio": "http://cdn.nrjaudio.fm/audio1/fr/30401/mp3_128.mp3?origine=playerweb"
  },
  {
    "flux": "",
    "nom_radio": "http://185.52.127.157/fr/30407/mp3_128.mp3?origine=playerweb"
  },
  {
    "flux": "http://chai5she.cdn.dvmr.fr/rmcinfo",
    "nom_radio": "RMC Info Talk Sport"
  },
  {
    "flux": "http://91.121.7.61:8200/",
    "nom_radio": "RMV"
  },
  {
    "flux": "https://listen.radioking.com/radio/2966/stream/63127",
    "nom_radio": "RPL Radio"
  },
  {
    "flux": "http://streaming.radio.rtl.fr/rtl-1-44-128",
    "nom_radio": "RTL"
  },
  {
    "flux": "http://streaming.radio.rtl2.fr/rtl2-1-44-96",
    "nom_radio": "RTL2"
  },
  {
    "flux": "http://stream.rtsfm.com:8000/;stream/1",
    "nom_radio": "RTS FM"
  },
  {
    "flux": "http://stream.sing-sing.org:8000/singsing128",
    "nom_radio": "Sing Sing"
  },
  {
    "flux": "http://icecast.skyrock.net/s/natio_mp3_128k",
    "nom_radio": "Skyrock"
  },
  {
    "flux": "http://stric6.streamakaci.com/solfm64.mp3",
    "nom_radio": "SOL-FM 100.7"
  },
  {
    "flux": "https://nfw.ria.ru/flv/audio.aspx?ID=6854085&type=mp3",
    "nom_radio": "SpuTnik France"
  },
  {
    "flux": "https://start-sud.ice.infomaniak.ch/start-sud-high.mp3",
    "nom_radio": "Sud Radio"
  },
  {
    "flux": "http://80.82.229.202:8000/sunhd.mp3",
    "nom_radio": "Sun"
  },
  {
    "flux": "http://dedibox-linux.sweetfm.fr:8000/lms",
    "nom_radio": "Sweet FM"
  },
  {
    "flux": "http://swingfm.ice.infomaniak.ch/swingfm-128",
    "nom_radio": "Swing FM"
  },
  {
    "flux": "http://5.39.86.216:8666/timbrefm",
    "nom_radio": "Timbre fm"
  },
  {
    "flux": "http://streaming.tendanceouest.com/tomanche.mp3",
    "nom_radio": "Tendance Ouest"
  },
  {
    "flux": "http://hit-sport.ice.infomaniak.ch/hit-sport-high.mp3",
    "nom_radio": "Tonic Radio"
  },
  {
    "flux": "http://str0.creacast.com/topmusic1",
    "nom_radio": "Top Music"
  },
  {
    "flux": "http://broadcast.infomaniak.net/tsfjazz-high.mp3",
    "nom_radio": "TSF Jazz"
  },
  {
    "flux": "http://welsass.fr/play",
    "nom_radio": "Welsass"
  },
  {
    "flux": "http://broadcast.infomaniak.net/start-witfm-high.mp3",
    "nom_radio": "Wit FM"
  },
  {
    "flux": "http://yvelinesradio884fm.ice.infomaniak.ch/yvelinesradio884fm-96.aac",
    "nom_radio": "Yvelines Radio"
  },
  {
    "flux": "http://flux1.zenradio.fr:8800/",
    "nom_radio": "Zen Radio"
  },
  {
    "flux": "http://zjm.ice.infomaniak.ch/zjm-128.aac",
    "nom_radio": "ZJM"
  }
]
